Find a baseline value — get_baseline • PMDatR
…
#> 121      11 65.0 4.92 24.08  0.86   6.700
#> 122      12 60.5 5.30  0.00  0.00   2.605
#> 123      12 60.5 5.30  0.25  1.25   2.605
#> 124      12 60.5 5.30  0.50  3.96   2.605
#> 125      12 60.5 5.30  1.00  7.82   2.605
#> 126      12 60.5 5.30  2.00  9.72   2.605
#> 127      12 60.5 5.30  3.52  9.75   2.605
#> 128      12 60.5 5.30  5.07  8.57   2.605
#> 129      12 60.5 5.30  7.07  6.59   2.605
#> 130      12 60.5 5.30  9.03  6.11   2.605
#> 131      12 60.5 5.30 12.05  4.57   2.605
#> 132      12 60.5 5.30 24.15  1.17   2.605
Theoph %>% mutate(conc=set_units(conc,"mg/ml"),
  conc.bl = get_baseline(conc, Time>0 & Time<1, Subject, fun.summ=mean_)) %>% as_data_frame
#> # A tibble: 132 x 6
#>    Subject    Wt  Dose   Time conc    conc.bl
#>    <ord>   <dbl> <dbl>  <dbl> <mg/ml> <mg/ml>
#>  1 1        79.6  4.02  0     " 0.74" 4.705  
#>  2 1        79.6  4.02  0.25  " 2.84" 4.705  
#>  3 1        79.6  4.02  0.570 " 6.57" 4.705  
#>  4 1        79.6  4.02  1.12  10.50   4.705  
#>  5 1        79.6  4.02  2.02  " 9.66" 4.705  
#>  6 1        79.6  4.02  3.82  " 8.58" 4.705  
#>  7 1        79.6  4.02  5.1   " 8.36" 4.705  
#>  8 1        79.6  4.02  7.03  " 7.47" 4.705  
#>  9 1        79.6  4.02  9.05  " 6.89" 4.705  
#> 10 1        79.6  4.02 12.1   " 5.94" 4.705  
#> # ... with 122 more rows
…
